%YAML 1.1
%TAG !u! tag:unity3d.com,2011:
--- !u!1045 &1
EditorBuildSettings:
  m_ObjectHideFlags: 0
  serializedVersion: 2
  m_Scenes:
  - enabled: 1
    path: Assets/Scenes/MainMenu/MainMenu.unity
    guid: 599acce9c62ac6a41aed30c24232a2fc
  - enabled: 1
    path: Assets/Scenes/SampleScene.unity
    guid: 9fc0d4010bbf28b4594072e72b8655ab
  m_configObjects:
    com.unity.adaptiveperformance.loader_settings: {fileID: 11400000, guid: d4c72b83e2a7154449a1a1fc9cd795e9, type: 2}
    com.unity.adaptiveperformance.simulator.provider_settings: {fileID: 11400000, guid: e1543f42b0dfbf7428640304a7882c8d, type: 2}
